Pentathlon II
…
Next, create a tibble with 6 columns. Five columns for the CLV series for each of the plans and one column for the weeks variable defined above. Call the clv function you created above to fill-in the columns.

## create the tibble (data.frame)
tibble1 <-tibble::tibble(weeks =1:104,email1 =clv1$sum_revenue,email2 =clv2$sum_revenue,email3 =clv3$sum_revenue,email4 =clv4$sum_revenue,email5 =clv5$sum_revenue)
tibble1

# A tibble: 104 x 6
   weeks email1 email2 email3 email4 email5
   <int>  <dbl>  <dbl>  <dbl>  <dbl>  <dbl>
 1     1  0.116  0.136  0.141  0.142  0.143
 2     2  0.231  0.272  0.281  0.280  0.281
 3     3  0.346  0.406  0.418  0.415  0.413
 4     4  0.460  0.540  0.553  0.546  0.539
 5     5  0.574  0.673  0.686  0.674  0.661
 6     6  0.687  0.805  0.817  0.798  0.778
 7     7  0.799  0.936  0.947  0.920  0.890
 8     8  0.911  1.07   1.07   1.04   0.999
 9     9  1.02   1.20   1.20   1.15   1.10 
10    10  1.13   1.32   1.32   1.27   1.21 
# ... with 94 more rows
…
